G04 #@! TF.GenerationSoftware,KiCad,Pcbnew,6.0.2+dfsg-1*
G04 #@! TF.CreationDate,2023-07-07T17:48:40-07:00*
G04 #@! TF.ProjectId,GDEW042T2-driver-board,47444557-3034-4325-9432-2d6472697665,rev?*
G04 #@! TF.SameCoordinates,Original*
G04 #@! TF.FileFunction,Copper,L1,Top*
G04 #@! TF.FilePolarity,Positive*
%FSLAX46Y46*%
G04 Gerber Fmt 4.6, Leading zero omitted, Abs format (unit mm)*
G04 Created by KiCad (PCBNEW 6.0.2+dfsg-1) date 2023-07-07 17:48:40*
%MOMM*%
%LPD*%
G01*
G04 APERTURE LIST*
G04 Aperture macros list*
%AMRoundRect*
0 Rectangle with rounded corners*
0 $1 Rounding radius*
0 $2 $3 $4 $5 $6 $7 $8 $9 X,Y pos of 4 corners*
0 Add a 4 corners polygon primitive as box body*
4,1,4,$2,$3,$4,$5,$6,$7,$8,$9,$2,$3,0*
0 Add four circle primitives for the rounded corners*
1,1,$1+$1,$2,$3*
1,1,$1+$1,$4,$5*
1,1,$1+$1,$6,$7*
1,1,$1+$1,$8,$9*
0 Add four rect primitives between the rounded corners*
20,1,$1+$1,$2,$3,$4,$5,0*
20,1,$1+$1,$4,$5,$6,$7,0*
20,1,$1+$1,$6,$7,$8,$9,0*
20,1,$1+$1,$8,$9,$2,$3,0*%
G04 Aperture macros list end*
G04 #@! TA.AperFunction,ComponentPad*
%ADD10O,1.700000X1.700000*%
G04 #@! TD*
G04 #@! TA.AperFunction,ComponentPad*
%ADD11R,1.700000X1.700000*%
G04 #@! TD*
G04 #@! TA.AperFunction,SMDPad,CuDef*
%ADD12RoundRect,0.250000X-0.250000X-0.475000X0.250000X-0.475000X0.250000X0.475000X-0.250000X0.475000X0*%
G04 #@! TD*
G04 #@! TA.AperFunction,SMDPad,CuDef*
%ADD13RoundRect,0.150000X0.587500X0.150000X-0.587500X0.150000X-0.587500X-0.150000X0.587500X-0.150000X0*%
G04 #@! TD*
G04 #@! TA.AperFunction,SMDPad,CuDef*
%ADD14R,1.200000X0.900000*%
G04 #@! TD*
G04 #@! TA.AperFunction,SMDPad,CuDef*
%ADD15R,3.000000X2.000000*%
G04 #@! TD*
G04 #@! TA.AperFunction,SMDPad,CuDef*
%ADD16R,1.300000X0.300000*%
G04 #@! TD*
G04 #@! TA.AperFunction,SMDPad,CuDef*
%ADD17RoundRect,0.250000X0.475000X-0.250000X0.475000X0.250000X-0.475000X0.250000X-0.475000X-0.250000X0*%
G04 #@! TD*
G04 #@! TA.AperFunction,SMDPad,CuDef*
%ADD18RoundRect,0.250000X0.250000X0.475000X-0.250000X0.475000X-0.250000X-0.475000X0.250000X-0.475000X0*%
G04 #@! TD*
G04 #@! TA.AperFunction,SMDPad,CuDef*
%ADD19RoundRect,0.135000X0.135000X0.185000X-0.135000X0.185000X-0.135000X-0.185000X0.135000X-0.185000X0*%
G04 #@! TD*
G04 #@! TA.AperFunction,SMDPad,CuDef*
%ADD20RoundRect,0.218750X0.381250X-0.218750X0.381250X0.218750X-0.381250X0.218750X-0.381250X-0.218750X0*%
G04 #@! TD*
G04 #@! TA.AperFunction,SMDPad,CuDef*
%ADD21RoundRect,0.250000X-0.475000X0.250000X-0.475000X-0.250000X0.475000X-0.250000X0.475000X0.250000X0*%
G04 #@! TD*
G04 #@! TA.AperFunction,ViaPad*
%ADD22C,0.685800*%
G04 #@! TD*
G04 #@! TA.AperFunction,Conductor*
%ADD23C,0.254000*%
G04 #@! TD*
G04 #@! TA.AperFunction,Conductor*
%ADD24C,0.330200*%
G04 #@! TD*
G04 APERTURE END LIST*
D10*
X155956000Y-99822000D03*
X155956000Y-102362000D03*
X155956000Y-104902000D03*
X155956000Y-107442000D03*
X155956000Y-109982000D03*
X155956000Y-112522000D03*
X155956000Y-115062000D03*
D11*
X155956000Y-117602000D03*
D12*
X170058000Y-112522000D03*
X171958000Y-112522000D03*
D13*
X161133000Y-104516000D03*
X161133000Y-102616000D03*
X159258000Y-103566000D03*
D14*
X163830000Y-114680000D03*
X163830000Y-111380000D03*
D15*
X177763000Y-116874000D03*
X177763000Y-102074000D03*
D16*
X175413000Y-103724000D03*
X175413000Y-104224000D03*
X175413000Y-104724000D03*
X175413000Y-105224000D03*
X175413000Y-105724000D03*
X175413000Y-106224000D03*
X175413000Y-106724000D03*
X175413000Y-107224000D03*
X175413000Y-107724000D03*
X175413000Y-108224000D03*
X175413000Y-108724000D03*
X175413000Y-109224000D03*
X175413000Y-109724000D03*
X175413000Y-110224000D03*
X175413000Y-110724000D03*
X175413000Y-111224000D03*
X175413000Y-111724000D03*
X175413000Y-112224000D03*
X175413000Y-112724000D03*
X175413000Y-113224000D03*
X175413000Y-113724000D03*
X175413000Y-114224000D03*
X175413000Y-114724000D03*
X175413000Y-115224000D03*
D12*
X168402000Y-102108000D03*
X170302000Y-102108000D03*
D17*
X161290000Y-115091000D03*
X161290000Y-113191000D03*
D18*
X172720000Y-121158000D03*
X170820000Y-121158000D03*
D12*
X168402000Y-104648000D03*
X170302000Y-104648000D03*
X170058000Y-114554000D03*
X171958000Y-114554000D03*
D19*
X174244000Y-99822000D03*
X173224000Y-99822000D03*
D18*
X172720000Y-119126000D03*
X170820000Y-119126000D03*
D20*
X158750000Y-113284000D03*
X158750000Y-111159000D03*
D18*
X177292000Y-121158000D03*
X175392000Y-121158000D03*
D21*
X159512000Y-106558000D03*
X159512000Y-108458000D03*
D14*
X166370000Y-111380000D03*
X166370000Y-114680000D03*
X166370000Y-108584000D03*
X166370000Y-105284000D03*
D18*
X177292000Y-119126000D03*
X175392000Y-119126000D03*
D22*
X173990000Y-121158000D03*
X166878000Y-102616000D03*
X176559733Y-111831457D03*
X177038000Y-106172000D03*
X168656000Y-114554000D03*
X171424033Y-116560033D03*
X167894000Y-110490000D03*
X177155451Y-107305451D03*
X177546000Y-108076800D03*
X178099341Y-108823609D03*
X177493748Y-109450368D03*
X177296017Y-110290516D03*
X176784000Y-110998000D03*
X176530000Y-104648000D03*
X174244000Y-101346000D03*
D23*
X175413000Y-104224000D02*
X174504378Y-104224000D01*
X174504378Y-104224000D02*
X171118378Y-100838000D01*
X171118378Y-100838000D02*
X166370000Y-100838000D01*
X166370000Y-100838000D02*
X162692000Y-104516000D01*
X162692000Y-104516000D02*
X161133000Y-104516000D01*
X161133000Y-102616000D02*
X163068000Y-102616000D01*
X171450000Y-99822000D02*
X172466000Y-100838000D01*
X163068000Y-102616000D02*
X165862000Y-99822000D01*
X172466000Y-100838000D02*
X173990000Y-100838000D01*
X165862000Y-99822000D02*
X171450000Y-99822000D01*
X166370000Y-111380000D02*
X163830000Y-111380000D01*
X163830000Y-111380000D02*
X163830000Y-110876000D01*
X163830000Y-110876000D02*
X159512000Y-106558000D01*
X176452276Y-111724000D02*
X175413000Y-111724000D01*
X176321622Y-107224000D02*
X175413000Y-107224000D01*
X177038000Y-106172000D02*
X177038000Y-106507622D01*
X176559733Y-111831457D02*
X176452276Y-111724000D01*
X177038000Y-106507622D02*
X176321622Y-107224000D01*
X172437606Y-115583320D02*
X172400746Y-115583320D01*
X172400746Y-115583320D02*
X171424033Y-116560033D01*
X167894000Y-110490000D02*
X166370000Y-108966000D01*
X175413000Y-113724000D02*
X174260066Y-113724000D01*
X166370000Y-108966000D02*
X166370000Y-108584000D01*
X174260066Y-113724000D02*
X172762320Y-115221746D01*
X170820000Y-117164066D02*
X170820000Y-119126000D01*
X171424033Y-116560033D02*
X170820000Y-117164066D01*
X172762320Y-115221746D02*
X172762320Y-115258606D01*
X172762320Y-115258606D02*
X172437606Y-115583320D01*
X171299606Y-122187320D02*
X168923320Y-122187320D01*
X173736000Y-119502000D02*
X175392000Y-121158000D01*
X172227074Y-122174000D02*
X171312926Y-122174000D01*
X172240394Y-122187320D02*
X172227074Y-122174000D01*
X166370000Y-119634000D02*
X166370000Y-114680000D01*
X174480022Y-114724000D02*
X173736000Y-115468022D01*
X174362680Y-122187320D02*
X172240394Y-122187320D01*
X168923320Y-122187320D02*
X166370000Y-119634000D01*
X175413000Y-114724000D02*
X174480022Y-114724000D01*
X171312926Y-122174000D02*
X171299606Y-122187320D01*
X173736000Y-115468022D02*
X173736000Y-119502000D01*
X175392000Y-121158000D02*
X174362680Y-122187320D01*
D24*
X174526000Y-111224000D02*
X168260822Y-111224000D01*
X168260822Y-111224000D02*
X166293822Y-113191000D01*
X157827000Y-113191000D02*
X155956000Y-115062000D01*
X166293822Y-113191000D02*
X161290000Y-113191000D01*
X175413000Y-110724000D02*
X175026000Y-110724000D01*
X158750000Y-113191000D02*
X157827000Y-113191000D01*
X175026000Y-110724000D02*
X174526000Y-111224000D01*
X175413000Y-111224000D02*
X174526000Y-111224000D01*
X158750000Y-113191000D02*
X161290000Y-113191000D01*
D23*
X175413000Y-113224000D02*
X173288000Y-113224000D01*
X173288000Y-113224000D02*
X171958000Y-114554000D01*
X171915680Y-118421394D02*
X171915680Y-120062320D01*
X171915680Y-120062320D02*
X170820000Y-121158000D01*
X173228000Y-117109074D02*
X171915680Y-118421394D01*
X173228000Y-115366044D02*
X173228000Y-117109074D01*
X175413000Y-114224000D02*
X174370044Y-114224000D01*
X174370044Y-114224000D02*
X173228000Y-115366044D01*
X174752000Y-119126000D02*
X175392000Y-119126000D01*
X174590000Y-115224000D02*
X174244000Y-115570000D01*
X174244000Y-115570000D02*
X174244000Y-118618000D01*
X174244000Y-118618000D02*
X174752000Y-119126000D01*
X175413000Y-115224000D02*
X174590000Y-115224000D01*
X175413000Y-105724000D02*
X172780000Y-105724000D01*
X172780000Y-105724000D02*
X171704000Y-104648000D01*
X171704000Y-104648000D02*
X170302000Y-104648000D01*
X173296000Y-105224000D02*
X171704000Y-103632000D01*
X171704000Y-102616000D02*
X171196000Y-102108000D01*
X175413000Y-105224000D02*
X173296000Y-105224000D01*
X171704000Y-103632000D02*
X171704000Y-102616000D01*
X171064000Y-102108000D02*
X170302000Y-102108000D01*
X172256000Y-112224000D02*
X171958000Y-112522000D01*
X175413000Y-112224000D02*
X172256000Y-112224000D01*
X177155451Y-107305451D02*
X176736902Y-107724000D01*
X176736902Y-107724000D02*
X175413000Y-107724000D01*
X177546000Y-108076800D02*
X177398800Y-108224000D01*
X177398800Y-108224000D02*
X175413000Y-108224000D01*
X177999732Y-108724000D02*
X175413000Y-108724000D01*
X178099341Y-108823609D02*
X177999732Y-108724000D01*
X177267380Y-109224000D02*
X177493748Y-109450368D01*
X175413000Y-109224000D02*
X177267380Y-109224000D01*
X177296017Y-110290516D02*
X176729501Y-109724000D01*
X176729501Y-109724000D02*
X175413000Y-109724000D01*
X176784000Y-110998000D02*
X176784000Y-110686378D01*
X176321622Y-110224000D02*
X175413000Y-110224000D01*
X176784000Y-110686378D02*
X176321622Y-110224000D01*
X173990000Y-100838000D02*
X174244000Y-100584000D01*
X176454000Y-104724000D02*
X176530000Y-104648000D01*
X175413000Y-104724000D02*
X176454000Y-104724000D01*
X174244000Y-100584000D02*
X174244000Y-99822000D01*
X173990000Y-101092000D02*
X173990000Y-100838000D01*
X174244000Y-101346000D02*
X173990000Y-101092000D01*
X159070000Y-103566000D02*
X159258000Y-103566000D01*
X160646995Y-105410000D02*
X159258000Y-104021005D01*
X158750000Y-111159000D02*
X158750000Y-109220000D01*
X159512000Y-108458000D02*
X158242000Y-107188000D01*
X158242000Y-104394000D02*
X159070000Y-103566000D01*
X158750000Y-109220000D02*
X159512000Y-108458000D01*
X166244000Y-105410000D02*
X160646995Y-105410000D01*
X159258000Y-104021005D02*
X159258000Y-103566000D01*
X166370000Y-105284000D02*
X166244000Y-105410000D01*
X158242000Y-107188000D02*
X158242000Y-104394000D01*
G04 #@! TA.AperFunction,Conductor*
G36*
X155522793Y-98318002D02*
G01*
X155569286Y-98371658D01*
X155579390Y-98441932D01*
X155549896Y-98506512D01*
X155493817Y-98543765D01*
X155427756Y-98565357D01*
X155229607Y-98668507D01*
X155225474Y-98671610D01*
X155225471Y-98671612D01*
X155201247Y-98689800D01*
X155050965Y-98802635D01*
X154896629Y-98964138D01*
X154893715Y-98968410D01*
X154893714Y-98968411D01*
X154867364Y-99007039D01*
X154770743Y-99148680D01*
X154731207Y-99233853D01*
X154681071Y-99341863D01*
X154676688Y-99351305D01*
X154616989Y-99566570D01*
X154593251Y-99788695D01*
X154593548Y-99793848D01*
X154593548Y-99793851D01*
X154599011Y-99888590D01*
X154606110Y-100011715D01*
X154607247Y-100016761D01*
X154607248Y-100016767D01*
X154620247Y-100074444D01*
X154655222Y-100229639D01*
X154739266Y-100436616D01*
X154741965Y-100441020D01*
X154837077Y-100596229D01*
X154855987Y-100627088D01*
X155002250Y-100795938D01*
X155174126Y-100938632D01*
X155204336Y-100956285D01*
X155247445Y-100981476D01*
X155296169Y-101033114D01*
X155309240Y-101102897D01*
X155282509Y-101168669D01*
X155242055Y-101202027D01*
X155229607Y-101208507D01*
X155225474Y-101211610D01*
X155225471Y-101211612D01*
X155201247Y-101229800D01*
X155050965Y-101342635D01*
X154896629Y-101504138D01*
X154770743Y-101688680D01*
X154755003Y-101722590D01*
X154684720Y-101874002D01*
X154676688Y-101891305D01*
X154616989Y-102106570D01*
X154593251Y-102328695D01*
X154593548Y-102333848D01*
X154593548Y-102333851D01*
X154599011Y-102428590D01*
X154606110Y-102551715D01*
X154607247Y-102556761D01*
X154607248Y-102556767D01*
X154624519Y-102633400D01*
X154655222Y-102769639D01*
X154693461Y-102863811D01*
X154731648Y-102957854D01*
X154739266Y-102976616D01*
X154741965Y-102981020D01*
X154846986Y-103152399D01*
X154855987Y-103167088D01*
X155002250Y-103335938D01*
X155174126Y-103478632D01*
X155185128Y-103485061D01*
X155247445Y-103521476D01*
X155296169Y-103573114D01*
X155309240Y-103642897D01*
X155282509Y-103708669D01*
X155242055Y-103742027D01*
X155229607Y-103748507D01*
X155225474Y-103751610D01*
X155225471Y-103751612D01*
X155057643Y-103877621D01*
X155050965Y-103882635D01*
X155032605Y-103901848D01*
X154914836Y-104025086D01*
X154896629Y-104044138D01*
X154770743Y-104228680D01*
X154740388Y-104294074D01*
X154696432Y-104388771D01*
X154676688Y-104431305D01*
X154616989Y-104646570D01*
X154593251Y-104868695D01*
X154593548Y-104873848D01*
X154593548Y-104873851D01*
X154600603Y-104996203D01*
X154606110Y-105091715D01*
X154607247Y-105096761D01*
X154607248Y-105096767D01*
X154618226Y-105145479D01*
X154655222Y-105309639D01*
X154693461Y-105403811D01*
X154731309Y-105497019D01*
X154739266Y-105516616D01*
X154855987Y-105707088D01*
X155002250Y-105875938D01*
X155174126Y-106018632D01*
X155180689Y-106022467D01*
X155247445Y-106061476D01*
X155296169Y-106113114D01*
X155309240Y-106182897D01*
X155282509Y-106248669D01*
X155242055Y-106282027D01*
X155229607Y-106288507D01*
X155225474Y-106291610D01*
X155225471Y-106291612D01*
X155055100Y-106419530D01*
X155050965Y-106422635D01*
X155047393Y-106426373D01*
X154918387Y-106561370D01*
X154896629Y-106584138D01*
X154770743Y-106768680D01*
X154737370Y-106840577D01*
X154680296Y-106963533D01*
X154676688Y-106971305D01*
X154616989Y-107186570D01*
X154593251Y-107408695D01*
X154593548Y-107413848D01*
X154593548Y-107413851D01*
X154604859Y-107610016D01*
X154606110Y-107631715D01*
X154607247Y-107636761D01*
X154607248Y-107636767D01*
X154618968Y-107688771D01*
X154655222Y-107849639D01*
X154739266Y-108056616D01*
X154855987Y-108247088D01*
X155002250Y-108415938D01*
X155174126Y-108558632D01*
X155244595Y-108599811D01*
X155247445Y-108601476D01*
X155296169Y-108653114D01*
X155309240Y-108722897D01*
X155282509Y-108788669D01*
X155242055Y-108822027D01*
X155229607Y-108828507D01*
X155225474Y-108831610D01*
X155225471Y-108831612D01*
X155074034Y-108945314D01*
X155050965Y-108962635D01*
X155047393Y-108966373D01*
X154922803Y-109096749D01*
X154896629Y-109124138D01*
X154893715Y-109128410D01*
X154893714Y-109128411D01*
X154878798Y-109150277D01*
X154770743Y-109308680D01*
X154755003Y-109342590D01*
X154692201Y-109477886D01*
X154676688Y-109511305D01*
X154616989Y-109726570D01*
X154593251Y-109948695D01*
X154593548Y-109953848D01*
X154593548Y-109953851D01*
X154601963Y-110099788D01*
X154606110Y-110171715D01*
X154607247Y-110176761D01*
X154607248Y-110176767D01*
X154649991Y-110366429D01*
X154655222Y-110389639D01*
X154739266Y-110596616D01*
X154855987Y-110787088D01*
X155002250Y-110955938D01*
X155174126Y-111098632D01*
X155244595Y-111139811D01*
X155247445Y-111141476D01*
X155296169Y-111193114D01*
X155309240Y-111262897D01*
X155282509Y-111328669D01*
X155242055Y-111362027D01*
X155229607Y-111368507D01*
X155225474Y-111371610D01*
X155225471Y-111371612D01*
X155055100Y-111499530D01*
X155050965Y-111502635D01*
X154896629Y-111664138D01*
X154893715Y-111668410D01*
X154893714Y-111668411D01*
X154880113Y-111688349D01*
X154770743Y-111848680D01*
X154738751Y-111917602D01*
X154681561Y-112040808D01*
X154676688Y-112051305D01*
X154616989Y-112266570D01*
X154593251Y-112488695D01*
X154593548Y-112493848D01*
X154593548Y-112493851D01*
X154597771Y-112567091D01*
X154606110Y-112711715D01*
X154607247Y-112716761D01*
X154607248Y-112716767D01*
X154621606Y-112780475D01*
X154655222Y-112929639D01*
X154739266Y-113136616D01*
X154855987Y-113327088D01*
X155002250Y-113495938D01*
X155174126Y-113638632D01*
X155199046Y-113653194D01*
X155247445Y-113681476D01*
X155296169Y-113733114D01*
X155309240Y-113802897D01*
X155282509Y-113868669D01*
X155242055Y-113902027D01*
X155229607Y-113908507D01*
X155225474Y-113911610D01*
X155225471Y-113911612D01*
X155055100Y-114039530D01*
X155050965Y-114042635D01*
X154896629Y-114204138D01*
X154893715Y-114208410D01*
X154893714Y-114208411D01*
X154843594Y-114281885D01*
X154770743Y-114388680D01*
X154753420Y-114426000D01*
X154694933Y-114552000D01*
X154676688Y-114591305D01*
X154616989Y-114806570D01*
X154593251Y-115028695D01*
X154593548Y-115033848D01*
X154593548Y-115033851D01*
X154605000Y-115232460D01*
X154606110Y-115251715D01*
X154607247Y-115256761D01*
X154607248Y-115256767D01*
X154631215Y-115363115D01*
X154655222Y-115469639D01*
X154739266Y-115676616D01*
X154741965Y-115681020D01*
X154828675Y-115822518D01*
X154855987Y-115867088D01*
X155002250Y-116035938D01*
X155006225Y-116039238D01*
X155006231Y-116039244D01*
X155011425Y-116043556D01*
X155051059Y-116102460D01*
X155052555Y-116173441D01*
X155015439Y-116233962D01*
X154975168Y-116258480D01*
X154867946Y-116298676D01*
X154852351Y-116307214D01*
X154750276Y-116383715D01*
X154737715Y-116396276D01*
X154661214Y-116498351D01*
X154652676Y-116513946D01*
X154607522Y-116634394D01*
X154603895Y-116649649D01*
X154598369Y-116700514D01*
X154598000Y-116707328D01*
X154598000Y-117329885D01*
X154602475Y-117345124D01*
X154603865Y-117346329D01*
X154611548Y-117348000D01*
X157295884Y-117348000D01*
X157311123Y-117343525D01*
X157312328Y-117342135D01*
X157313999Y-117334452D01*
X157313999Y-116707331D01*
X157313629Y-116700510D01*
X157308105Y-116649648D01*
X157304479Y-116634396D01*
X157259324Y-116513946D01*
X157250786Y-116498351D01*
X157174285Y-116396276D01*
X157161724Y-116383715D01*
X157059649Y-116307214D01*
X157044054Y-116298676D01*
X156933813Y-116257348D01*
X156877049Y-116214706D01*
X156852349Y-116148145D01*
X156867557Y-116078796D01*
X156889104Y-116050115D01*
X156990430Y-115949144D01*
X156990440Y-115949132D01*
X156994096Y-115945489D01*
X157053594Y-115862689D01*
X157121435Y-115768277D01*
X157124453Y-115764077D01*
X157137173Y-115738341D01*
X157221136Y-115568453D01*
X157221137Y-115568451D01*
X157223430Y-115563811D01*
X157266095Y-115423385D01*
X157276817Y-115388095D01*
X160057001Y-115388095D01*
X160057338Y-115394614D01*
X160067257Y-115490206D01*
X160070149Y-115503600D01*
X160121588Y-115657784D01*
X160127761Y-115670962D01*
X160213063Y-115808807D01*
X160222099Y-115820208D01*
X160336829Y-115934739D01*
X160348240Y-115943751D01*
X160486243Y-116028816D01*
X160499424Y-116034963D01*
X160653710Y-116086138D01*
X160667086Y-116089005D01*
X160761438Y-116098672D01*
X160767854Y-116099000D01*
X161017885Y-116099000D01*
X161033124Y-116094525D01*
X161034329Y-116093135D01*
X161036000Y-116085452D01*
X161036000Y-115363115D01*
X161031525Y-115347876D01*
X161030135Y-115346671D01*
X161022452Y-115345000D01*
X160075116Y-115345000D01*
X160059877Y-115349475D01*
X160058672Y-115350865D01*
X160057001Y-115358548D01*
X160057001Y-115388095D01*
X157276817Y-115388095D01*
X157286865Y-115355023D01*
X157286865Y-115355021D01*
X157288370Y-115350069D01*
X157317529Y-115128590D01*
X157317611Y-115125240D01*
X157319074Y-115065365D01*
X157319074Y-115065361D01*
X157319156Y-115062000D01*
X157300852Y-114839361D01*
X157284206Y-114773089D01*
X157287011Y-114702148D01*
X157317315Y-114653299D01*
X157831097Y-114139517D01*
X157893409Y-114105491D01*
X157964224Y-114110556D01*
X157986307Y-114121352D01*
X158053071Y-114162505D01*
X158053074Y-114162507D01*
X158059308Y-114166349D01*
X158066256Y-114168654D01*
X158066257Y-114168654D01*
X158213738Y-114217572D01*
X158213740Y-114217572D01*
X158220269Y-114219738D01*
X158320428Y-114230000D01*
X159179572Y-114230000D01*
X159182818Y-114229663D01*
X159182822Y-114229663D01*
X159216603Y-114226158D01*
X159280982Y-114219478D01*
X159441849Y-114165808D01*
X159586055Y-114076571D01*
X159623032Y-114039530D01*
X159700694Y-113961732D01*
X159705864Y-113956553D01*
X159725632Y-113924483D01*
X159778403Y-113876991D01*
X159832891Y-113864600D01*
X160116471Y-113864600D01*
X160184592Y-113884602D01*
X160213946Y-113911185D01*
X160216522Y-113915348D01*
X160341697Y-114040305D01*
X160346235Y-114043102D01*
X160386824Y-114100353D01*
X160390054Y-114171276D01*
X160354428Y-114232687D01*
X160345932Y-114240062D01*
X160335793Y-114248098D01*
X160221261Y-114362829D01*
X160212249Y-114374240D01*
X160127184Y-114512243D01*
X160121037Y-114525424D01*
X160069862Y-114679710D01*
X160066995Y-114693086D01*
X160057328Y-114787438D01*
X160057000Y-114793855D01*
X160057000Y-114818885D01*
X160061475Y-114834124D01*
X160062865Y-114835329D01*
X160070548Y-114837000D01*
X161418000Y-114837000D01*
X161486121Y-114857002D01*
X161532614Y-114910658D01*
X161544000Y-114963000D01*
X161544000Y-116080884D01*
X161548475Y-116096123D01*
X161549865Y-116097328D01*
X161557548Y-116098999D01*
X161812095Y-116098999D01*
X161818614Y-116098662D01*
X161914206Y-116088743D01*
X161927600Y-116085851D01*
X162081784Y-116034412D01*
X162094962Y-116028239D01*
X162232807Y-115942937D01*
X162244208Y-115933901D01*
X162358739Y-115819171D01*
X162367751Y-115807760D01*
X162452816Y-115669757D01*
X162458963Y-115656576D01*
X162510138Y-115502290D01*
X162513005Y-115488914D01*
X162522672Y-115394562D01*
X162523000Y-115388146D01*
X162523000Y-115386425D01*
X162523106Y-115386063D01*
X162523164Y-115384935D01*
X162523433Y-115384949D01*
X162543002Y-115318304D01*
X162596658Y-115271811D01*
X162666932Y-115261707D01*
X162731512Y-115291201D01*
X162766982Y-115342196D01*
X162776675Y-115368052D01*
X162785214Y-115383649D01*
X162861715Y-115485724D01*
X162874276Y-115498285D01*
X162976351Y-115574786D01*
X162991946Y-115583324D01*
X163112394Y-115628478D01*
X163127649Y-115632105D01*
X163178514Y-115637631D01*
X163185328Y-115638000D01*
X163557885Y-115638000D01*
X163573124Y-115633525D01*
X163574329Y-115632135D01*
X163576000Y-115624452D01*
X163576000Y-115619884D01*
X164084000Y-115619884D01*
X164088475Y-115635123D01*
X164089865Y-115636328D01*
X164097548Y-115637999D01*
X164474669Y-115637999D01*
X164481490Y-115637629D01*
X164532352Y-115632105D01*
X164547604Y-115628479D01*
X164668054Y-115583324D01*
X164683649Y-115574786D01*
X164785724Y-115498285D01*
X164798285Y-115485724D01*
X164874786Y-115383649D01*
X164883324Y-115368054D01*
X164928478Y-115247606D01*
X164932105Y-115232351D01*
X164937631Y-115181486D01*
X164938000Y-115174672D01*
X164938000Y-114952115D01*
X164933525Y-114936876D01*
X164932135Y-114935671D01*
X164924452Y-114934000D01*
X164102115Y-114934000D01*
X164086876Y-114938475D01*
X164085671Y-114939865D01*
X164084000Y-114947548D01*
X164084000Y-115619884D01*
X163576000Y-115619884D01*
X163576000Y-114552000D01*
X163596002Y-114483879D01*
X163649658Y-114437386D01*
X163702000Y-114426000D01*
X164919884Y-114426000D01*
X164935123Y-114421525D01*
X164936328Y-114420135D01*
X164937999Y-114412452D01*
X164937999Y-114185331D01*
X164937629Y-114178510D01*
X164932105Y-114127648D01*
X164928478Y-114112393D01*
X164899401Y-114034829D01*
X164894218Y-113964022D01*
X164928139Y-113901653D01*
X164990395Y-113867524D01*
X165017383Y-113864600D01*
X165182083Y-113864600D01*
X165250204Y-113884602D01*
X165296697Y-113938258D01*
X165306801Y-114008532D01*
X165300065Y-114034829D01*
X165271029Y-114112282D01*
X165271027Y-114112288D01*
X165268255Y-114119684D01*
X165261500Y-114181866D01*
X165261500Y-115178134D01*
X165268255Y-115240316D01*
X165319385Y-115376705D01*
X165406739Y-115493261D01*
X165523295Y-115580615D01*
X165531704Y-115583767D01*
X165531705Y-115583768D01*
X165652729Y-115629138D01*
X165709494Y-115671779D01*
X165734194Y-115738341D01*
X165734500Y-115747120D01*
X165734500Y-119554980D01*
X165733970Y-119566214D01*
X165732292Y-119573719D01*
X165732541Y-119581638D01*
X165734438Y-119642012D01*
X165734500Y-119645969D01*
X165734500Y-119673983D01*
X165734996Y-119677908D01*
X165734996Y-119677909D01*
X165735008Y-119678004D01*
X165735941Y-119689849D01*
X165737335Y-119734205D01*
X165743013Y-119753748D01*
X165747023Y-119773112D01*
X165749573Y-119793299D01*
X165752489Y-119800663D01*
X165752490Y-119800668D01*
X165765907Y-119834556D01*
X165769752Y-119845785D01*
X165782131Y-119888393D01*
X165786169Y-119895220D01*
X165786170Y-119895223D01*
X165792488Y-119905906D01*
X165801188Y-119923664D01*
X165805761Y-119935215D01*
X165805765Y-119935221D01*
X165808681Y-119942588D01*
X165813339Y-119948999D01*
X165813340Y-119949001D01*
X165834764Y-119978488D01*
X165841281Y-119988410D01*
X165859826Y-120019768D01*
X165859829Y-120019772D01*
X165863866Y-120026598D01*
X165878250Y-120040982D01*
X165891091Y-120056016D01*
X165903058Y-120072487D01*
X165909166Y-120077540D01*
X165937255Y-120100777D01*
X165946035Y-120108767D01*
X168418070Y-122580803D01*
X168425646Y-122589129D01*
X168429767Y-122595623D01*
X168435542Y-122601046D01*
X168479585Y-122642405D01*
X168482427Y-122645160D01*
X168502226Y-122664959D01*
X168505351Y-122667383D01*
X168505360Y-122667391D01*
X168505446Y-122667457D01*
X168514471Y-122675165D01*
X168546814Y-122705537D01*
X168553758Y-122709355D01*
X168553760Y-122709356D01*
X168564649Y-122715342D01*
X168581167Y-122726193D01*
X168597253Y-122738670D01*
X168637986Y-122756296D01*
X168648634Y-122761513D01*
X168660262Y-122767905D01*
X168687517Y-122782889D01*
X168695192Y-122784860D01*
X168695198Y-122784862D01*
X168707231Y-122787951D01*
X168725933Y-122794354D01*
X168744612Y-122802437D01*
X168778138Y-122807747D01*
X168788447Y-122809380D01*
X168800060Y-122811785D01*
X168843038Y-122822820D01*
X168863385Y-122822820D01*
X168883097Y-122824371D01*
X168903199Y-122827555D01*
X168911091Y-122826809D01*
X168947376Y-122823379D01*
X168959234Y-122822820D01*
X171220586Y-122822820D01*
X171231820Y-122823350D01*
X171239325Y-122825028D01*
X171307618Y-122822882D01*
X171311575Y-122822820D01*
X171339589Y-122822820D01*
X171343514Y-122822324D01*
X171343515Y-122822324D01*
X171343610Y-122822312D01*
X171355455Y-122821379D01*
X171385276Y-122820442D01*
X171391888Y-122820234D01*
X171391889Y-122820234D01*
X171399811Y-122819985D01*
X171407423Y-122817774D01*
X171407426Y-122817773D01*
X171418681Y-122814503D01*
X171453834Y-122809500D01*
X172092318Y-122809500D01*
X172123646Y-122813457D01*
X172160112Y-122822820D01*
X172180459Y-122822820D01*
X172200171Y-122824371D01*
X172220273Y-122827555D01*
X172228165Y-122826809D01*
X172264450Y-122823379D01*
X172276308Y-122822820D01*
X174283660Y-122822820D01*
X174294894Y-122823350D01*
X174302399Y-122825028D01*
X174370692Y-122822882D01*
X174374649Y-122822820D01*
X174402663Y-122822820D01*
X174406588Y-122822324D01*
X174406589Y-122822324D01*
X174406684Y-122822312D01*
X174418529Y-122821379D01*
X174448350Y-122820442D01*
X174454962Y-122820234D01*
X174454963Y-122820234D01*
X174462885Y-122819985D01*
X174482429Y-122814307D01*
X174501792Y-122810297D01*
X174514120Y-122808740D01*
X174514122Y-122808740D01*
X174521979Y-122807747D01*
X174529343Y-122804831D01*
X174529348Y-122804830D01*
X174563236Y-122791413D01*
X174574465Y-122787568D01*
X174591145Y-122782722D01*
X174617073Y-122775189D01*
X174623900Y-122771151D01*
X174623903Y-122771150D01*
X174634586Y-122764832D01*
X174652344Y-122756132D01*
X174663895Y-122751559D01*
X174663901Y-122751555D01*
X174671268Y-122748639D01*
X174680657Y-122741818D01*
X174707168Y-122722556D01*
X174717090Y-122716039D01*
X174748448Y-122697494D01*
X174748452Y-122697491D01*
X174755278Y-122693454D01*
X174769662Y-122679070D01*
X174784696Y-122666229D01*
X174794753Y-122658922D01*
X174801167Y-122654262D01*
X174829458Y-122620064D01*
X174837447Y-122611285D01*
X175020327Y-122428405D01*
X175082639Y-122394379D01*
X175109422Y-122391500D01*
X175692400Y-122391500D01*
X175695646Y-122391163D01*
X175695650Y-122391163D01*
X175791308Y-122381238D01*
X175791312Y-122381237D01*
X175798166Y-122380526D01*
X175804702Y-122378345D01*
X175804704Y-122378345D01*
X175958998Y-122326868D01*
X175965946Y-122324550D01*
X176116348Y-122231478D01*
X176241305Y-122106303D01*
X176244102Y-122101765D01*
X176301353Y-122061176D01*
X176372276Y-122057946D01*
X176433687Y-122093572D01*
X176441062Y-122102068D01*
X176449098Y-122112207D01*
X176563829Y-122226739D01*
X176575240Y-122235751D01*
X176713243Y-122320816D01*
X176726424Y-122326963D01*
X176880710Y-122378138D01*
X176894086Y-122381005D01*
X176988438Y-122390672D01*
X176994854Y-122391000D01*
X177019885Y-122391000D01*
X177035124Y-122386525D01*
X177036329Y-122385135D01*
X177038000Y-122377452D01*
X177038000Y-122372884D01*
X177546000Y-122372884D01*
X177550475Y-122388123D01*
X177551865Y-122389328D01*
X177559548Y-122390999D01*
X177589095Y-122390999D01*
X177595614Y-122390662D01*
X177691206Y-122380743D01*
X177704600Y-122377851D01*
X177858784Y-122326412D01*
X177871962Y-122320239D01*
X178009807Y-122234937D01*
X178021208Y-122225901D01*
X178135739Y-122111171D01*
X178144751Y-122099760D01*
X178229816Y-121961757D01*
X178235963Y-121948576D01*
X178287138Y-121794290D01*
X178290005Y-121780914D01*
X178299672Y-121686562D01*
X178300000Y-121680146D01*
X178300000Y-121430115D01*
X178295525Y-121414876D01*
X178294135Y-121413671D01*
X178286452Y-121412000D01*
X177564115Y-121412000D01*
X177548876Y-121416475D01*
X177547671Y-121417865D01*
X177546000Y-121425548D01*
X177546000Y-122372884D01*
X177038000Y-122372884D01*
X177038000Y-120885885D01*
X177546000Y-120885885D01*
X177550475Y-120901124D01*
X177551865Y-120902329D01*
X177559548Y-120904000D01*
X178281884Y-120904000D01*
X178297123Y-120899525D01*
X178298328Y-120898135D01*
X178299999Y-120890452D01*
X178299999Y-120635905D01*
X178299662Y-120629386D01*
X178289743Y-120533794D01*
X178286851Y-120520400D01*
X178235412Y-120366216D01*
X178229239Y-120353038D01*
X178140083Y-120208965D01*
X178142714Y-120207337D01*
X178121304Y-120154418D01*
X178134485Y-120084656D01*
X178141208Y-120074175D01*
X178140910Y-120073991D01*
X178229816Y-119929757D01*
X178235963Y-119916576D01*
X178287138Y-119762290D01*
X178290005Y-119748914D01*
X178299672Y-119654562D01*
X178300000Y-119648146D01*
X178300000Y-119398115D01*
X178295525Y-119382876D01*
X178294135Y-119381671D01*
X178286452Y-119380000D01*
X177564115Y-119380000D01*
X177548876Y-119384475D01*
X177547671Y-119385865D01*
X177546000Y-119393548D01*
X177546000Y-120885885D01*
X177038000Y-120885885D01*
X177038000Y-118998000D01*
X177058002Y-118929879D01*
X177111658Y-118883386D01*
X177164000Y-118872000D01*
X178281884Y-118872000D01*
X178297123Y-118867525D01*
X178298328Y-118866135D01*
X178299999Y-118858452D01*
X178299999Y-118603905D01*
X178299662Y-118597388D01*
X178291788Y-118521504D01*
X178304653Y-118451683D01*
X178353223Y-118399900D01*
X178417115Y-118382500D01*
X179311134Y-118382500D01*
X179373316Y-118375745D01*
X179509705Y-118324615D01*
X179626261Y-118237261D01*
X179713615Y-118120705D01*
X179764745Y-117984316D01*
X179771500Y-117922134D01*
X179771500Y-115825866D01*
X179764745Y-115763684D01*
X179713615Y-115627295D01*
X179626261Y-115510739D01*
X179509705Y-115423385D01*
X179373316Y-115372255D01*
X179311134Y-115365500D01*
X176697500Y-115365500D01*
X176629379Y-115345498D01*
X176582886Y-115291842D01*
X176571500Y-115239500D01*
X176571500Y-115025866D01*
X176567344Y-114987606D01*
X176567344Y-114960393D01*
X176571131Y-114925533D01*
X176571131Y-114925529D01*
X176571500Y-114922134D01*
X176571500Y-114525866D01*
X176567344Y-114487606D01*
X176567344Y-114460393D01*
X176571131Y-114425533D01*
X176571131Y-114425529D01*
X176571500Y-114422134D01*
X176571500Y-114025866D01*
X176567344Y-113987606D01*
X176567344Y-113960393D01*
X176571131Y-113925533D01*
X176571131Y-113925529D01*
X176571500Y-113922134D01*
X176571500Y-113525866D01*
X176567344Y-113487606D01*
X176567344Y-113460393D01*
X176571131Y-113425533D01*
X176571131Y-113425529D01*
X176571500Y-113422134D01*
X176571500Y-113025866D01*
X176567344Y-112987606D01*
X176567344Y-112960393D01*
X176571131Y-112925533D01*
X176571131Y-112925529D01*
X176571500Y-112922134D01*
X176571500Y-112525866D01*
X176570581Y-112517400D01*
X176567673Y-112490636D01*
X176567344Y-112487606D01*
X176567344Y-112460393D01*
X176571131Y-112425533D01*
X176571131Y-112425529D01*
X176571500Y-112422134D01*
X176571500Y-112025866D01*
X176567476Y-111988820D01*
X176580005Y-111918937D01*
X176628326Y-111866922D01*
X176694514Y-111849951D01*
X176694514Y-111849400D01*
X176873486Y-111849400D01*
X176879939Y-111848028D01*
X176879943Y-111848028D01*
X176977482Y-111827295D01*
X177048546Y-111812190D01*
X177054577Y-111809505D01*
X177206015Y-111742081D01*
X177206017Y-111742080D01*
X177212045Y-111739396D01*
X177275320Y-111693424D01*
X177351492Y-111638082D01*
X177351494Y-111638080D01*
X177356836Y-111634199D01*
X177361258Y-111629288D01*
X177472172Y-111506105D01*
X177472173Y-111506104D01*
X177476591Y-111501197D01*
X177566077Y-111346203D01*
X177609897Y-111211338D01*
X177619342Y-111182270D01*
X177619342Y-111182269D01*
X177621382Y-111175991D01*
X177622072Y-111169427D01*
X177624624Y-111145147D01*
X177651638Y-111079490D01*
X177698684Y-111043212D01*
X177718027Y-111034600D01*
X177718035Y-111034595D01*
X177724062Y-111031912D01*
X177741106Y-111019529D01*
X177863509Y-110930598D01*
X177863511Y-110930596D01*
X177868853Y-110926715D01*
X177903102Y-110888678D01*
X177984189Y-110798621D01*
X177984190Y-110798620D01*
X177988608Y-110793713D01*
X178049482Y-110688277D01*
X178074790Y-110644442D01*
X178074791Y-110644441D01*
X178078094Y-110638719D01*
X178111467Y-110536008D01*
X178131359Y-110474786D01*
X178131359Y-110474785D01*
X178133399Y-110468507D01*
X178138374Y-110421179D01*
X178151417Y-110297081D01*
X178152107Y-110290516D01*
X178133399Y-110112525D01*
X178131359Y-110106246D01*
X178129986Y-110099788D01*
X178131715Y-110099420D01*
X178129938Y-110037136D01*
X178158159Y-109984863D01*
X178181919Y-109958474D01*
X178186339Y-109953565D01*
X178192115Y-109943562D01*
X178272521Y-109804294D01*
X178272522Y-109804293D01*
X178275825Y-109798571D01*
X178304669Y-109709799D01*
X178344741Y-109651195D01*
X178373253Y-109633629D01*
X178521353Y-109567692D01*
X178521360Y-109567688D01*
X178527386Y-109565005D01*
X178551177Y-109547720D01*
X178666833Y-109463691D01*
X178666835Y-109463689D01*
X178672177Y-109459808D01*
X178791932Y-109326806D01*
X178860657Y-109207771D01*
X178878114Y-109177535D01*
X178878115Y-109177534D01*
X178881418Y-109171812D01*
X178925231Y-109036968D01*
X178934683Y-109007879D01*
X178934683Y-109007878D01*
X178936723Y-109001600D01*
X178939283Y-108977249D01*
X178954741Y-108830174D01*
X178955431Y-108823609D01*
X178936723Y-108645618D01*
X178925446Y-108610909D01*
X178883460Y-108481691D01*
X178881418Y-108475406D01*
X178791932Y-108320412D01*
X178729425Y-108250990D01*
X178676599Y-108192321D01*
X178676598Y-108192320D01*
X178672177Y-108187410D01*
X178631148Y-108157600D01*
X178532728Y-108086094D01*
X178532727Y-108086093D01*
X178527386Y-108082213D01*
X178521353Y-108079527D01*
X178521348Y-108079524D01*
X178462993Y-108053542D01*
X178408897Y-108007562D01*
X178388932Y-107951608D01*
X178384072Y-107905373D01*
X178384072Y-107905372D01*
X178383382Y-107898809D01*
X178328077Y-107728597D01*
X178238591Y-107573603D01*
X178134563Y-107458067D01*
X178123258Y-107445512D01*
X178123257Y-107445511D01*
X178118836Y-107440601D01*
X178062790Y-107399881D01*
X178019436Y-107343659D01*
X178012247Y-107305377D01*
X178011541Y-107305451D01*
X177993523Y-107134024D01*
X177993523Y-107134023D01*
X177992833Y-107127460D01*
X177990683Y-107120841D01*
X177939570Y-106963533D01*
X177937528Y-106957248D01*
X177919215Y-106925528D01*
X177851343Y-106807972D01*
X177848042Y-106802254D01*
X177822040Y-106773375D01*
X177732709Y-106674163D01*
X177732708Y-106674162D01*
X177728287Y-106669252D01*
X177641858Y-106606457D01*
X177588838Y-106567936D01*
X177588837Y-106567935D01*
X177583496Y-106564055D01*
X177577468Y-106561371D01*
X177577466Y-106561370D01*
X177426028Y-106493946D01*
X177426027Y-106493946D01*
X177419997Y-106491261D01*
X177332467Y-106472656D01*
X177251394Y-106455423D01*
X177251390Y-106455423D01*
X177244937Y-106454051D01*
X177065965Y-106454051D01*
X177059512Y-106455423D01*
X177059508Y-106455423D01*
X176978435Y-106472656D01*
X176890905Y-106491261D01*
X176747550Y-106555086D01*
X176677185Y-106564520D01*
X176612888Y-106534414D01*
X176575074Y-106474325D01*
X176571254Y-106428943D01*
X176570947Y-106428926D01*
X176571067Y-106426714D01*
X176571039Y-106426383D01*
X176571130Y-106425542D01*
X176571130Y-106425538D01*
X176571500Y-106422134D01*
X176571500Y-106025866D01*
X176567344Y-105987606D01*
X176567344Y-105960393D01*
X176571131Y-105925533D01*
X176571131Y-105925529D01*
X176571500Y-105922134D01*
X176571500Y-105611633D01*
X176591502Y-105543512D01*
X176645158Y-105497019D01*
X176671303Y-105488386D01*
X176794546Y-105462190D01*
X176800577Y-105459505D01*
X176952015Y-105392081D01*
X176952017Y-105392080D01*
X176958045Y-105389396D01*
X176984653Y-105370064D01*
X177097492Y-105288082D01*
X177097494Y-105288080D01*
X177102836Y-105284199D01*
X177192210Y-105184939D01*
X177218172Y-105156105D01*
X177218173Y-105156104D01*
X177222591Y-105151197D01*
X177312077Y-104996203D01*
X177353507Y-104868695D01*
X177365342Y-104832270D01*
X177365342Y-104832269D01*
X177367382Y-104825991D01*
X177386090Y-104648000D01*
X177367382Y-104470009D01*
X177354355Y-104429914D01*
X177324292Y-104337392D01*
X177312077Y-104299797D01*
X177290596Y-104262590D01*
X177273728Y-104233375D01*
X177222591Y-104144803D01*
X177202600Y-104122600D01*
X177107258Y-104016712D01*
X177107257Y-104016711D01*
X177102836Y-104011801D01*
X177066156Y-103985151D01*
X176963387Y-103910485D01*
X176963386Y-103910484D01*
X176958045Y-103906604D01*
X176952017Y-103903920D01*
X176952015Y-103903919D01*
X176800577Y-103836495D01*
X176800576Y-103836495D01*
X176794546Y-103833810D01*
X176788091Y-103832438D01*
X176788088Y-103832437D01*
X176784841Y-103831747D01*
X176783144Y-103830831D01*
X176781806Y-103830396D01*
X176781885Y-103830151D01*
X176722367Y-103798019D01*
X176688046Y-103735870D01*
X176692773Y-103665031D01*
X176735048Y-103607993D01*
X176801449Y-103582865D01*
X176811037Y-103582500D01*
X179311134Y-103582500D01*
X179373316Y-103575745D01*
X179509705Y-103524615D01*
X179626261Y-103437261D01*
X179713615Y-103320705D01*
X179764745Y-103184316D01*
X179771500Y-103122134D01*
X179771500Y-101025866D01*
X179764745Y-100963684D01*
X179713615Y-100827295D01*
X179626261Y-100710739D01*
X179509705Y-100623385D01*
X179373316Y-100572255D01*
X179311134Y-100565500D01*
X176214866Y-100565500D01*
X176152684Y-100572255D01*
X176016295Y-100623385D01*
X175899739Y-100710739D01*
X175812385Y-100827295D01*
X175761255Y-100963684D01*
X175754500Y-101025866D01*
X175754500Y-102939500D01*
X175734498Y-103007621D01*
X175680842Y-103054114D01*
X175628500Y-103065500D01*
X174714866Y-103065500D01*
X174652684Y-103072255D01*
X174516295Y-103123385D01*
X174481499Y-103149463D01*
X174414995Y-103174310D01*
X174345613Y-103159257D01*
X174316841Y-103137731D01*
X172867706Y-101688595D01*
X172833680Y-101626283D01*
X172838745Y-101555467D01*
X172881292Y-101498632D01*
X172947812Y-101473821D01*
X172956801Y-101473500D01*
X173298668Y-101473500D01*
X173366789Y-101493502D01*
X173413282Y-101547158D01*
X173418501Y-101560564D01*
X173446673Y-101647267D01*
X173461923Y-101694203D01*
X173465226Y-101699925D01*
X173465227Y-101699926D01*
X173475570Y-101717840D01*
X173551409Y-101849197D01*
X173555827Y-101854104D01*
X173555828Y-101854105D01*
X173643983Y-101952011D01*
X173671164Y-101982199D01*
X173676506Y-101986080D01*
X173676508Y-101986082D01*
X173810613Y-102083515D01*
X173815955Y-102087396D01*
X173821983Y-102090080D01*
X173821985Y-102090081D01*
X173973423Y-102157505D01*
X173979454Y-102160190D01*
X174066984Y-102178795D01*
X174148057Y-102196028D01*
X174148061Y-102196028D01*
X174154514Y-102197400D01*
X174333486Y-102197400D01*
X174339939Y-102196028D01*
X174339943Y-102196028D01*
X174421016Y-102178795D01*
X174508546Y-102160190D01*
X174514577Y-102157505D01*
X174666015Y-102090081D01*
X174666017Y-102090080D01*
X174672045Y-102087396D01*
X174677387Y-102083515D01*
X174811492Y-101986082D01*
X174811494Y-101986080D01*
X174816836Y-101982199D01*
X174844017Y-101952011D01*
X174932172Y-101854105D01*
X174932173Y-101854104D01*
X174936591Y-101849197D01*
X175012430Y-101717840D01*
X175022773Y-101699926D01*
X175022774Y-101699925D01*
X175026077Y-101694203D01*
X175073855Y-101547158D01*
X175079342Y-101530270D01*
X175079342Y-101530269D01*
X175081382Y-101523991D01*
X175083862Y-101500401D01*
X175099400Y-101352565D01*
X175100090Y-101346000D01*
X175081382Y-101168009D01*
X175065341Y-101118638D01*
X175028119Y-101004082D01*
X175026077Y-100997797D01*
X175010918Y-100971540D01*
X174990010Y-100935327D01*
X174936591Y-100842803D01*
X174901706Y-100804060D01*
X174870991Y-100740056D01*
X174873303Y-100688416D01*
X174877529Y-100671959D01*
X174877529Y-100671958D01*
X174879500Y-100664282D01*
X174879500Y-100643935D01*
X174881051Y-100624224D01*
X174882995Y-100611950D01*
X174884235Y-100604121D01*
X174880059Y-100559944D01*
X174879500Y-100548086D01*
X174879500Y-100459312D01*
X174897046Y-100395173D01*
X174970234Y-100271419D01*
X174970234Y-100271418D01*
X174974269Y-100264596D01*
X174983035Y-100234425D01*
X175017834Y-100114644D01*
X175019629Y-100108466D01*
X175022185Y-100076000D01*
X175022307Y-100074444D01*
X175022307Y-100074438D01*
X175022500Y-100071989D01*
X175022499Y-99572012D01*
X175019629Y-99535534D01*
X174974269Y-99379404D01*
X174952107Y-99341929D01*
X174895540Y-99246280D01*
X174891506Y-99239459D01*
X174776541Y-99124494D01*
X174690352Y-99073522D01*
X174643419Y-99045766D01*
X174643418Y-99045766D01*
X174636596Y-99041731D01*
X174628985Y-99039520D01*
X174628983Y-99039519D01*
X174486644Y-98998166D01*
X174486645Y-98998166D01*
X174480466Y-98996371D01*
X174474059Y-98995867D01*
X174474055Y-98995866D01*
X174446444Y-98993693D01*
X174446438Y-98993693D01*
X174443989Y-98993500D01*
X174244122Y-98993500D01*
X174044012Y-98993501D01*
X174007534Y-98996371D01*
X173910730Y-99024495D01*
X173859017Y-99039519D01*
X173859015Y-99039520D01*
X173851404Y-99041731D01*
X173797647Y-99073523D01*
X173728834Y-99090982D01*
X173669370Y-99073522D01*
X173623220Y-99046229D01*
X173608783Y-99039981D01*
X173495395Y-99007039D01*
X173481295Y-99007079D01*
X173478000Y-99014349D01*
X173478000Y-99484458D01*
X173472997Y-99519610D01*
X173470166Y-99529353D01*
X173470165Y-99529360D01*
X173468371Y-99535534D01*
X173467867Y-99541941D01*
X173467866Y-99541945D01*
X173465693Y-99569556D01*
X173465500Y-99572011D01*
X173465501Y-99818646D01*
X173465501Y-99950000D01*
X173445499Y-100018120D01*
X173391844Y-100064613D01*
X173339501Y-100076000D01*
X173096000Y-100076000D01*
X173027879Y-100055998D01*
X172981386Y-100002342D01*
X172970000Y-99950000D01*
X172970000Y-99020100D01*
X172966027Y-99006569D01*
X172958129Y-99005434D01*
X172839217Y-99039981D01*
X172824778Y-99046230D01*
X172698595Y-99120854D01*
X172686159Y-99130501D01*
X172582501Y-99234159D01*
X172572854Y-99246595D01*
X172498230Y-99372778D01*
X172491981Y-99387217D01*
X172450665Y-99529428D01*
X172448363Y-99542032D01*
X172446193Y-99569597D01*
X172446000Y-99574527D01*
X172446000Y-99615077D01*
X172425998Y-99683198D01*
X172372342Y-99729691D01*
X172302068Y-99739795D01*
X172237488Y-99710301D01*
X172230913Y-99704181D01*
X171955245Y-99428512D01*
X171947675Y-99420193D01*
X171943553Y-99413697D01*
X171917519Y-99389249D01*
X171893735Y-99366915D01*
X171890893Y-99364160D01*
X171871094Y-99344361D01*
X171867969Y-99341937D01*
X171867960Y-99341929D01*
X171867874Y-99341863D01*
X171858849Y-99334155D01*
X171832285Y-99309210D01*
X171826506Y-99303783D01*
X171808669Y-99293977D01*
X171792153Y-99283127D01*
X171776067Y-99270650D01*
X171735334Y-99253024D01*
X171724686Y-99247807D01*
X171699809Y-99234131D01*
X171685803Y-99226431D01*
X171678128Y-99224460D01*
X171678122Y-99224458D01*
X171666089Y-99221369D01*
X171647387Y-99214966D01*
X171628708Y-99206883D01*
X171588913Y-99200580D01*
X171584873Y-99199940D01*
X171573260Y-99197535D01*
X171530282Y-99186500D01*
X171509935Y-99186500D01*
X171490224Y-99184949D01*
X171477950Y-99183005D01*
X171470121Y-99181765D01*
X171462229Y-99182511D01*
X171425944Y-99185941D01*
X171414086Y-99186500D01*
X165941032Y-99186500D01*
X165929793Y-99185970D01*
X165922281Y-99184291D01*
X165914356Y-99184540D01*
X165914355Y-99184540D01*
X165853970Y-99186438D01*
X165850012Y-99186500D01*
X165822017Y-99186500D01*
X165818083Y-99186997D01*
X165818081Y-99186997D01*
X165817994Y-99187008D01*
X165806160Y-99187940D01*
X165761795Y-99189335D01*
X165754182Y-99191547D01*
X165754181Y-99191547D01*
X165742252Y-99195013D01*
X165722888Y-99199023D01*
X165710560Y-99200580D01*
X165710558Y-99200580D01*
X165702701Y-99201573D01*
X165695337Y-99204489D01*
X165695332Y-99204490D01*
X165661444Y-99217907D01*
X165650215Y-99221752D01*
X165640902Y-99224458D01*
X165607607Y-99234131D01*
X165600781Y-99238168D01*
X165590091Y-99244490D01*
X165572341Y-99253187D01*
X165553412Y-99260681D01*
X165546998Y-99265341D01*
X165517514Y-99286762D01*
X165507594Y-99293278D01*
X165476229Y-99311827D01*
X165476226Y-99311829D01*
X165469402Y-99315865D01*
X165455014Y-99330253D01*
X165439980Y-99343094D01*
X165423513Y-99355058D01*
X165418460Y-99361166D01*
X165395228Y-99389249D01*
X165387238Y-99398029D01*
X162841672Y-101943595D01*
X162779360Y-101977621D01*
X162752577Y-101980500D01*
X162218450Y-101980500D01*
X162150329Y-101960498D01*
X162139415Y-101951702D01*
X162139175Y-101952011D01*
X162132915Y-101947155D01*
X162127307Y-101941547D01*
X162120483Y-101937511D01*
X162120480Y-101937509D01*
X161990927Y-101860892D01*
X161990928Y-101860892D01*
X161984101Y-101856855D01*
X161976490Y-101854644D01*
X161976488Y-101854643D01*
X161911921Y-101835885D01*
X161824331Y-101810438D01*
X161817926Y-101809934D01*
X161817921Y-101809933D01*
X161789458Y-101807693D01*
X161789450Y-101807693D01*
X161787002Y-101807500D01*
X160478998Y-101807500D01*
X160476550Y-101807693D01*
X160476542Y-101807693D01*
X160448079Y-101809933D01*
X160448074Y-101809934D01*
X160441669Y-101810438D01*
X160354079Y-101835885D01*
X160289512Y-101854643D01*
X160289510Y-101854644D01*
X160281899Y-101856855D01*
X160275072Y-101860892D01*
X160275073Y-101860892D01*
X160145520Y-101937509D01*
X160145517Y-101937511D01*
X160138693Y-101941547D01*
X160021047Y-102059193D01*
X160017011Y-102066017D01*
X160017009Y-102066020D01*
X159970583Y-102144522D01*
X159936355Y-102202399D01*
X159889938Y-102362169D01*
X159889434Y-102368574D01*
X159889433Y-102368579D01*
X159887193Y-102397042D01*
X159887000Y-102399498D01*
X159887000Y-102631500D01*
X159866998Y-102699621D01*
X159813342Y-102746114D01*
X159761000Y-102757500D01*
X158603998Y-102757500D01*
X158601550Y-102757693D01*
X158601542Y-102757693D01*
X158573079Y-102759933D01*
X158573074Y-102759934D01*
X158566669Y-102760438D01*
X158466731Y-102789472D01*
X158414512Y-102804643D01*
X158414510Y-102804644D01*
X158406899Y-102806855D01*
X158400072Y-102810892D01*
X158400073Y-102810892D01*
X158270520Y-102887509D01*
X158270517Y-102887511D01*
X158263693Y-102891547D01*
X158146047Y-103009193D01*
X158142011Y-103016017D01*
X158142009Y-103016020D01*
X158081275Y-103118717D01*
X158061355Y-103152399D01*
X158059144Y-103160010D01*
X158059143Y-103160012D01*
X158052082Y-103184316D01*
X158014938Y-103312169D01*
X158014434Y-103318574D01*
X158014433Y-103318579D01*
X158013067Y-103335938D01*
X158012000Y-103349498D01*
X158012000Y-103673077D01*
X157991998Y-103741198D01*
X157975095Y-103762172D01*
X157848517Y-103888750D01*
X157840191Y-103896326D01*
X157833697Y-103900447D01*
X157828274Y-103906222D01*
X157786915Y-103950265D01*
X157784160Y-103953107D01*
X157764361Y-103972906D01*
X157761937Y-103976031D01*
X157761929Y-103976040D01*
X157761863Y-103976126D01*
X157754155Y-103985151D01*
X157723783Y-104017494D01*
X157719965Y-104024438D01*
X157719964Y-104024440D01*
X157713978Y-104035329D01*
X157703127Y-104051847D01*
X157690650Y-104067933D01*
X157673024Y-104108666D01*
X157667807Y-104119314D01*
X157646431Y-104158197D01*
X157644460Y-104165872D01*
X157644458Y-104165878D01*
X157641369Y-104177911D01*
X157634966Y-104196613D01*
X157626883Y-104215292D01*
X157624763Y-104228680D01*
X157619940Y-104259127D01*
X157617535Y-104270740D01*
X157606500Y-104313718D01*
X157606500Y-104334065D01*
X157604949Y-104353776D01*
X157601765Y-104373879D01*
X157602511Y-104381771D01*
X157605941Y-104418056D01*
X157606500Y-104429914D01*
X157606500Y-107108980D01*
X157605970Y-107120214D01*
X157604292Y-107127719D01*
X157604541Y-107135638D01*
X157606438Y-107196012D01*
X157606500Y-107199969D01*
X157606500Y-107227983D01*
X157606996Y-107231908D01*
X157606996Y-107231909D01*
X157607008Y-107232004D01*
X157607941Y-107243849D01*
X157609335Y-107288205D01*
X157614324Y-107305377D01*
X157615013Y-107307748D01*
X157619023Y-107327112D01*
X157621573Y-107347299D01*
X157624489Y-107354663D01*
X157624490Y-107354668D01*
X157637907Y-107388556D01*
X157641752Y-107399785D01*
X157644341Y-107408695D01*
X157654131Y-107442393D01*
X157658169Y-107449220D01*
X157658170Y-107449223D01*
X157664488Y-107459906D01*
X157673188Y-107477664D01*
X157677761Y-107489215D01*
X157677765Y-107489221D01*
X157680681Y-107496588D01*
X157685339Y-107502999D01*
X157685340Y-107503001D01*
X157706764Y-107532488D01*
X157713281Y-107542410D01*
X157731826Y-107573768D01*
X157731829Y-107573772D01*
X157735866Y-107580598D01*
X157750250Y-107594982D01*
X157763091Y-107610016D01*
X157775058Y-107626487D01*
X157781166Y-107631540D01*
X157809255Y-107654777D01*
X157818035Y-107662767D01*
X158241595Y-108086327D01*
X158275621Y-108148639D01*
X158278500Y-108175422D01*
X158278500Y-108743858D01*
X158258498Y-108811979D01*
X158244352Y-108830109D01*
X158237210Y-108837714D01*
X158237207Y-108837718D01*
X158231783Y-108843494D01*
X158227965Y-108850438D01*
X158227964Y-108850440D01*
X158221978Y-108861329D01*
X158211127Y-108877847D01*
X158198650Y-108893933D01*
X158181024Y-108934666D01*
X158175807Y-108945314D01*
X158154431Y-108984197D01*
X158152460Y-108991872D01*
X158152458Y-108991878D01*
X158149369Y-109003911D01*
X158142966Y-109022613D01*
X158134883Y-109041292D01*
X158133644Y-109049117D01*
X158127940Y-109085127D01*
X158125535Y-109096740D01*
X158114500Y-109139718D01*
X158114500Y-109160065D01*
X158112949Y-109179776D01*
X158109765Y-109199879D01*
X158110511Y-109207771D01*
X158113941Y-109244056D01*
X158114500Y-109255914D01*
X158114500Y-110172119D01*
X158094498Y-110240240D01*
X158054804Y-110279263D01*
X157913945Y-110366429D01*
X157794136Y-110486447D01*
X157705151Y-110630808D01*
X157702846Y-110637756D01*
X157702846Y-110637757D01*
X157654774Y-110782689D01*
X157651762Y-110791769D01*
X157641500Y-110891928D01*
X157641500Y-111426072D01*
X157652022Y-111527482D01*
X157705692Y-111688349D01*
X157794929Y-111832555D01*
X157914947Y-111952364D01*
X157921177Y-111956204D01*
X157921178Y-111956205D01*
X157945599Y-111971258D01*
X158059308Y-112041349D01*
X158066256Y-112043654D01*
X158066257Y-112043654D01*
X158213738Y-112092572D01*
X158213740Y-112092572D01*
X158220269Y-112094738D01*
X158234656Y-112096212D01*
X158300383Y-112123054D01*
X158341164Y-112181169D01*
X158344052Y-112252107D01*
X158308130Y-112313345D01*
X158244802Y-112345441D01*
X158234814Y-112346883D01*
X158225876Y-112347810D01*
X158225872Y-112347811D01*
X158219018Y-112348522D01*
X158058151Y-112402192D01*
X157913945Y-112491429D01*
X157913663Y-112490973D01*
X157852395Y-112515775D01*
X157831367Y-112516101D01*
X157791488Y-112513382D01*
X157731770Y-112523805D01*
X157725258Y-112524765D01*
X157665144Y-112532040D01*
X157658032Y-112534728D01*
X157652200Y-112536160D01*
X157644074Y-112538383D01*
X157638365Y-112540107D01*
X157630879Y-112541413D01*
X157575399Y-112565767D01*
X157569302Y-112568255D01*
X157538688Y-112579823D01*
X157512632Y-112589669D01*
X157506370Y-112593972D01*
X157500927Y-112596818D01*
X157431291Y-112610652D01*
X157365231Y-112584642D01*
X157323719Y-112527046D01*
X157316976Y-112495480D01*
X157304759Y-112346883D01*
X157300852Y-112299361D01*
X157246431Y-112082702D01*
X157157354Y-111877840D01*
X157036014Y-111690277D01*
X156885670Y-111525051D01*
X156881619Y-111521852D01*
X156881615Y-111521848D01*
X156714414Y-111389800D01*
X156714410Y-111389798D01*
X156710359Y-111386598D01*
X156669053Y-111363796D01*
X156619084Y-111313364D01*
X156604312Y-111243921D01*
X156629428Y-111177516D01*
X156656780Y-111150909D01*
X156700603Y-111119650D01*
X156835860Y-111023173D01*
X156994096Y-110865489D01*
X157053594Y-110782689D01*
X157121435Y-110688277D01*
X157124453Y-110684077D01*
X157147921Y-110636594D01*
X157221136Y-110488453D01*
X157221137Y-110488451D01*
X157223430Y-110483811D01*
X157257763Y-110370807D01*
X157286865Y-110275023D01*
X157286865Y-110275021D01*
X157288370Y-110270069D01*
X157317529Y-110048590D01*
X157319156Y-109982000D01*
X157300852Y-109759361D01*
X157246431Y-109542702D01*
X157157354Y-109337840D01*
X157036014Y-109150277D01*
X156885670Y-108985051D01*
X156881619Y-108981852D01*
X156881615Y-108981848D01*
X156714414Y-108849800D01*
X156714410Y-108849798D01*
X156710359Y-108846598D01*
X156669053Y-108823796D01*
X156619084Y-108773364D01*
X156604312Y-108703921D01*
X156629428Y-108637516D01*
X156656780Y-108610909D01*
X156700603Y-108579650D01*
X156835860Y-108483173D01*
X156994096Y-108325489D01*
X157053594Y-108242689D01*
X157121435Y-108148277D01*
X157124453Y-108144077D01*
X157153223Y-108085866D01*
X157221136Y-107948453D01*
X157221137Y-107948451D01*
X157223430Y-107943811D01*
X157273832Y-107777919D01*
X157286865Y-107735023D01*
X157286865Y-107735021D01*
X157288370Y-107730069D01*
X157317529Y-107508590D01*
X157317822Y-107496588D01*
X157319074Y-107445365D01*
X157319074Y-107445361D01*
X157319156Y-107442000D01*
X157300852Y-107219361D01*
X157246431Y-107002702D01*
X157157354Y-106797840D01*
X157036014Y-106610277D01*
X156885670Y-106445051D01*
X156881619Y-106441852D01*
X156881615Y-106441848D01*
X156714414Y-106309800D01*
X156714410Y-106309798D01*
X156710359Y-106306598D01*
X156669053Y-106283796D01*
X156619084Y-106233364D01*
X156604312Y-106163921D01*
X156629428Y-106097516D01*
X156656780Y-106070909D01*
X156724693Y-106022467D01*
X156835860Y-105943173D01*
X156994096Y-105785489D01*
X157040432Y-105721006D01*
X157121435Y-105608277D01*
X157124453Y-105604077D01*
X157151427Y-105549500D01*
X157221136Y-105408453D01*
X157221137Y-105408451D01*
X157223430Y-105403811D01*
X157288370Y-105190069D01*
X157317529Y-104968590D01*
X157319156Y-104902000D01*
X157300852Y-104679361D01*
X157246431Y-104462702D01*
X157157354Y-104257840D01*
X157067818Y-104119438D01*
X157038822Y-104074617D01*
X157038820Y-104074614D01*
X157036014Y-104070277D01*
X156885670Y-103905051D01*
X156881619Y-103901852D01*
X156881615Y-103901848D01*
X156714414Y-103769800D01*
X156714410Y-103769798D01*
X156710359Y-103766598D01*
X156669053Y-103743796D01*
X156619084Y-103693364D01*
X156604312Y-103623921D01*
X156629428Y-103557516D01*
X156656780Y-103530909D01*
X156721055Y-103485062D01*
X156835860Y-103403173D01*
X156861767Y-103377357D01*
X156944922Y-103294491D01*
X156994096Y-103245489D01*
X157053594Y-103162689D01*
X157121435Y-103068277D01*
X157124453Y-103064077D01*
X157131012Y-103050807D01*
X157221136Y-102868453D01*
X157221137Y-102868451D01*
X157223430Y-102863811D01*
X157288370Y-102650069D01*
X157317529Y-102428590D01*
X157317611Y-102425240D01*
X157319074Y-102365365D01*
X157319074Y-102365361D01*
X157319156Y-102362000D01*
X157300852Y-102139361D01*
X157246431Y-101922702D01*
X157157354Y-101717840D01*
X157098123Y-101626283D01*
X157038822Y-101534617D01*
X157038820Y-101534614D01*
X157036014Y-101530277D01*
X156885670Y-101365051D01*
X156881619Y-101361852D01*
X156881615Y-101361848D01*
X156714414Y-101229800D01*
X156714410Y-101229798D01*
X156710359Y-101226598D01*
X156669053Y-101203796D01*
X156619084Y-101153364D01*
X156604312Y-101083921D01*
X156629428Y-101017516D01*
X156656780Y-100990909D01*
X156705321Y-100956285D01*
X156835860Y-100863173D01*
X156850564Y-100848521D01*
X156981622Y-100717919D01*
X156994096Y-100705489D01*
X157052491Y-100624224D01*
X157121435Y-100528277D01*
X157124453Y-100524077D01*
X157177598Y-100416547D01*
X157221136Y-100328453D01*
X157221137Y-100328451D01*
X157223430Y-100323811D01*
X157288370Y-100110069D01*
X157317529Y-99888590D01*
X157319156Y-99822000D01*
X157300852Y-99599361D01*
X157246431Y-99382702D01*
X157157354Y-99177840D01*
X157072211Y-99046229D01*
X157038822Y-98994617D01*
X157038820Y-98994614D01*
X157036014Y-98990277D01*
X156885670Y-98825051D01*
X156881619Y-98821852D01*
X156881615Y-98821848D01*
X156714414Y-98689800D01*
X156714410Y-98689798D01*
X156710359Y-98686598D01*
X156514789Y-98578638D01*
X156509920Y-98576914D01*
X156509916Y-98576912D01*
X156413509Y-98542773D01*
X156355973Y-98501179D01*
X156330057Y-98435081D01*
X156343991Y-98365465D01*
X156393350Y-98314434D01*
X156455569Y-98298000D01*
X180722000Y-98298000D01*
X180790121Y-98318002D01*
X180836614Y-98371658D01*
X180848000Y-98424000D01*
X180848000Y-123064000D01*
X180827998Y-123132121D01*
X180774342Y-123178614D01*
X180722000Y-123190000D01*
X154050000Y-123190000D01*
X153981879Y-123169998D01*
X153935386Y-123116342D01*
X153924000Y-123064000D01*
X153924000Y-118496669D01*
X154598001Y-118496669D01*
X154598371Y-118503490D01*
X154603895Y-118554352D01*
X154607521Y-118569604D01*
X154652676Y-118690054D01*
X154661214Y-118705649D01*
X154737715Y-118807724D01*
X154750276Y-118820285D01*
X154852351Y-118896786D01*
X154867946Y-118905324D01*
X154988394Y-118950478D01*
X155003649Y-118954105D01*
X155054514Y-118959631D01*
X155061328Y-118960000D01*
X155683885Y-118960000D01*
X155699124Y-118955525D01*
X155700329Y-118954135D01*
X155702000Y-118946452D01*
X155702000Y-118941884D01*
X156210000Y-118941884D01*
X156214475Y-118957123D01*
X156215865Y-118958328D01*
X156223548Y-118959999D01*
X156850669Y-118959999D01*
X156857490Y-118959629D01*
X156908352Y-118954105D01*
X156923604Y-118950479D01*
X157044054Y-118905324D01*
X157059649Y-118896786D01*
X157161724Y-118820285D01*
X157174285Y-118807724D01*
X157250786Y-118705649D01*
X157259324Y-118690054D01*
X157304478Y-118569606D01*
X157308105Y-118554351D01*
X157313631Y-118503486D01*
X157314000Y-118496672D01*
X157314000Y-117874115D01*
X157309525Y-117858876D01*
X157308135Y-117857671D01*
X157300452Y-117856000D01*
X156228115Y-117856000D01*
X156212876Y-117860475D01*
X156211671Y-117861865D01*
X156210000Y-117869548D01*
X156210000Y-118941884D01*
X155702000Y-118941884D01*
X155702000Y-117874115D01*
X155697525Y-117858876D01*
X155696135Y-117857671D01*
X155688452Y-117856000D01*
X154616116Y-117856000D01*
X154600877Y-117860475D01*
X154599672Y-117861865D01*
X154598001Y-117869548D01*
X154598001Y-118496669D01*
X153924000Y-118496669D01*
X153924000Y-98424000D01*
X153944002Y-98355879D01*
X153997658Y-98309386D01*
X154050000Y-98298000D01*
X155454672Y-98298000D01*
X155522793Y-98318002D01*
G37*
G04 #@! TD.AperFunction*
G04 #@! TA.AperFunction,Conductor*
G36*
X168992121Y-111917602D02*
G01*
X169038614Y-111971258D01*
X169050000Y-112023600D01*
X169050000Y-112249885D01*
X169054475Y-112265124D01*
X169055865Y-112266329D01*
X169063548Y-112268000D01*
X170186000Y-112268000D01*
X170254121Y-112288002D01*
X170300614Y-112341658D01*
X170312000Y-112394000D01*
X170312000Y-115768884D01*
X170316475Y-115784123D01*
X170317865Y-115785328D01*
X170325548Y-115786999D01*
X170355095Y-115786999D01*
X170361614Y-115786662D01*
X170457206Y-115776743D01*
X170470600Y-115773851D01*
X170624784Y-115722412D01*
X170637962Y-115716239D01*
X170775807Y-115630937D01*
X170787208Y-115621901D01*
X170901738Y-115507172D01*
X170908794Y-115498238D01*
X170966712Y-115457177D01*
X171037635Y-115453947D01*
X171099046Y-115489574D01*
X171105846Y-115497407D01*
X171109522Y-115503348D01*
X171163057Y-115556790D01*
X171197136Y-115619071D01*
X171192133Y-115689891D01*
X171149637Y-115746764D01*
X171125288Y-115761069D01*
X171002018Y-115815952D01*
X171002016Y-115815953D01*
X170995988Y-115818637D01*
X170990647Y-115822517D01*
X170990646Y-115822518D01*
X170880558Y-115902502D01*
X170851197Y-115923834D01*
X170846776Y-115928744D01*
X170846775Y-115928745D01*
X170737494Y-116050115D01*
X170731442Y-116056836D01*
X170641956Y-116211830D01*
X170586651Y-116382042D01*
X170585961Y-116388605D01*
X170585961Y-116388606D01*
X170577615Y-116468009D01*
X170550601Y-116533666D01*
X170541400Y-116543933D01*
X170426517Y-116658816D01*
X170418191Y-116666392D01*
X170411697Y-116670513D01*
X170406274Y-116676288D01*
X170364915Y-116720331D01*
X170362160Y-116723173D01*
X170342361Y-116742972D01*
X170339937Y-116746097D01*
X170339929Y-116746106D01*
X170339863Y-116746192D01*
X170332155Y-116755217D01*
X170301783Y-116787560D01*
X170297965Y-116794504D01*
X170297964Y-116794506D01*
X170291978Y-116805395D01*
X170281127Y-116821913D01*
X170268650Y-116837999D01*
X170251024Y-116878732D01*
X170245807Y-116889380D01*
X170224431Y-116928263D01*
X170222460Y-116935938D01*
X170222458Y-116935944D01*
X170219369Y-116947977D01*
X170212966Y-116966679D01*
X170204883Y-116985358D01*
X170203644Y-116993183D01*
X170197940Y-117029193D01*
X170195535Y-117040806D01*
X170184500Y-117083784D01*
X170184500Y-117104131D01*
X170182949Y-117123842D01*
X170179765Y-117143945D01*
X170180511Y-117151837D01*
X170183941Y-117188122D01*
X170184500Y-117199980D01*
X170184500Y-117927339D01*
X170164498Y-117995460D01*
X170124804Y-118034482D01*
X170095652Y-118052522D01*
X169970695Y-118177697D01*
X169877885Y-118328262D01*
X169822203Y-118496139D01*
X169811500Y-118600600D01*
X169811500Y-119651400D01*
X169811837Y-119654646D01*
X169811837Y-119654650D01*
X169821618Y-119748914D01*
X169822474Y-119757166D01*
X169878450Y-119924946D01*
X169944827Y-120032209D01*
X169971522Y-120075348D01*
X169968788Y-120077040D01*
X169990049Y-120129538D01*
X169976893Y-120199305D01*
X169970362Y-120209492D01*
X169970695Y-120209697D01*
X169911904Y-120305074D01*
X169877885Y-120360262D01*
X169875581Y-120367209D01*
X169830002Y-120504627D01*
X169822203Y-120528139D01*
X169811500Y-120632600D01*
X169811500Y-121425820D01*
X169791498Y-121493941D01*
X169737842Y-121540434D01*
X169685500Y-121551820D01*
X169238742Y-121551820D01*
X169170621Y-121531818D01*
X169149647Y-121514915D01*
X167042405Y-119407672D01*
X167008379Y-119345360D01*
X167005500Y-119318577D01*
X167005500Y-115747120D01*
X167025502Y-115678999D01*
X167079158Y-115632506D01*
X167087271Y-115629138D01*
X167208295Y-115583768D01*
X167208296Y-115583767D01*
X167216705Y-115580615D01*
X167333261Y-115493261D01*
X167420615Y-115376705D01*
X167471745Y-115240316D01*
X167478500Y-115178134D01*
X167478500Y-115076095D01*
X169050001Y-115076095D01*
X169050338Y-115082614D01*
X169060257Y-115178206D01*
X169063149Y-115191600D01*
X169114588Y-115345784D01*
X169120761Y-115358962D01*
X169206063Y-115496807D01*
X169215099Y-115508208D01*
X169329829Y-115622739D01*
X169341240Y-115631751D01*
X169479243Y-115716816D01*
X169492424Y-115722963D01*
X169646710Y-115774138D01*
X169660086Y-115777005D01*
X169754438Y-115786672D01*
X169760854Y-115787000D01*
X169785885Y-115787000D01*
X169801124Y-115782525D01*
X169802329Y-115781135D01*
X169804000Y-115773452D01*
X169804000Y-114826115D01*
X169799525Y-114810876D01*
X169798135Y-114809671D01*
X169790452Y-114808000D01*
X169068116Y-114808000D01*
X169052877Y-114812475D01*
X169051672Y-114813865D01*
X169050001Y-114821548D01*
X169050001Y-115076095D01*
X167478500Y-115076095D01*
X167478500Y-114281885D01*
X169050000Y-114281885D01*
X169054475Y-114297124D01*
X169055865Y-114298329D01*
X169063548Y-114300000D01*
X169785885Y-114300000D01*
X169801124Y-114295525D01*
X169802329Y-114294135D01*
X169804000Y-114286452D01*
X169804000Y-112794115D01*
X169799525Y-112778876D01*
X169798135Y-112777671D01*
X169790452Y-112776000D01*
X169068116Y-112776000D01*
X169052877Y-112780475D01*
X169051672Y-112781865D01*
X169050001Y-112789548D01*
X169050001Y-113044095D01*
X169050338Y-113050614D01*
X169060257Y-113146206D01*
X169063149Y-113159600D01*
X169114588Y-113313784D01*
X169120761Y-113326962D01*
X169209917Y-113471035D01*
X169207286Y-113472663D01*
X169228696Y-113525582D01*
X169215515Y-113595344D01*
X169208792Y-113605825D01*
X169209090Y-113606009D01*
X169120184Y-113750243D01*
X169114037Y-113763424D01*
X169062862Y-113917710D01*
X169059995Y-113931086D01*
X169050328Y-114025438D01*
X169050000Y-114031855D01*
X169050000Y-114281885D01*
X167478500Y-114281885D01*
X167478500Y-114181866D01*
X167471745Y-114119684D01*
X167420615Y-113983295D01*
X167333261Y-113866739D01*
X167216705Y-113779385D01*
X167080316Y-113728255D01*
X167042245Y-113724119D01*
X167021515Y-113721867D01*
X167021510Y-113721867D01*
X167018134Y-113721500D01*
X167014739Y-113721500D01*
X167013206Y-113721417D01*
X166946268Y-113697758D01*
X166902747Y-113641665D01*
X166896461Y-113570947D01*
X166930930Y-113506507D01*
X168502931Y-111934505D01*
X168565243Y-111900480D01*
X168592026Y-111897600D01*
X168924000Y-111897600D01*
X168992121Y-111917602D01*
G37*
G04 #@! TD.AperFunction*
G04 #@! TA.AperFunction,Conductor*
G36*
X172916121Y-118892002D02*
G01*
X172962614Y-118945658D01*
X172974000Y-118998000D01*
X172974000Y-120885885D01*
X172978475Y-120901124D01*
X172979865Y-120902329D01*
X172987548Y-120904000D01*
X173709884Y-120904000D01*
X173725123Y-120899525D01*
X173726328Y-120898135D01*
X173727999Y-120890452D01*
X173727999Y-120696922D01*
X173748001Y-120628801D01*
X173801657Y-120582308D01*
X173871931Y-120572204D01*
X173936511Y-120601698D01*
X173943086Y-120607819D01*
X174346596Y-121011329D01*
X174380621Y-121073641D01*
X174383500Y-121100424D01*
X174383500Y-121215577D01*
X174363498Y-121283698D01*
X174346595Y-121304672D01*
X174136352Y-121514915D01*
X174074040Y-121548941D01*
X174047257Y-121551820D01*
X173854000Y-121551820D01*
X173785879Y-121531818D01*
X173739386Y-121478162D01*
X173731605Y-121442394D01*
X173723525Y-121414876D01*
X173722135Y-121413671D01*
X173714452Y-121412000D01*
X172592000Y-121412000D01*
X172523879Y-121391998D01*
X172477386Y-121338342D01*
X172466000Y-121286000D01*
X172466000Y-120416859D01*
X172476363Y-120366818D01*
X172484653Y-120347661D01*
X172489876Y-120337001D01*
X172507428Y-120305074D01*
X172507429Y-120305071D01*
X172511249Y-120298123D01*
X172516312Y-120278405D01*
X172522714Y-120259706D01*
X172530797Y-120241027D01*
X172532036Y-120233203D01*
X172532038Y-120233197D01*
X172537740Y-120197200D01*
X172540146Y-120185580D01*
X172549208Y-120150283D01*
X172549208Y-120150282D01*
X172551180Y-120142602D01*
X172551180Y-120122254D01*
X172552731Y-120102543D01*
X172554675Y-120090269D01*
X172555915Y-120082440D01*
X172551739Y-120038264D01*
X172551180Y-120026406D01*
X172551180Y-118998000D01*
X172571182Y-118929879D01*
X172624838Y-118883386D01*
X172677180Y-118872000D01*
X172848000Y-118872000D01*
X172916121Y-118892002D01*
G37*
G04 #@! TD.AperFunction*
G04 #@! TA.AperFunction,Conductor*
G36*
X167336121Y-101493502D02*
G01*
X167382614Y-101547158D01*
X167394000Y-101599500D01*
X167394000Y-101835885D01*
X167398475Y-101851124D01*
X167399865Y-101852329D01*
X167407548Y-101854000D01*
X168530000Y-101854000D01*
X168598121Y-101874002D01*
X168644614Y-101927658D01*
X168656000Y-101980000D01*
X168656000Y-103322882D01*
X168660143Y-103336992D01*
X168662368Y-103399273D01*
X168656000Y-103428547D01*
X168656000Y-105862884D01*
X168660475Y-105878123D01*
X168661865Y-105879328D01*
X168669548Y-105880999D01*
X168699095Y-105880999D01*
X168705614Y-105880662D01*
X168801206Y-105870743D01*
X168814600Y-105867851D01*
X168968784Y-105816412D01*
X168981962Y-105810239D01*
X169119807Y-105724937D01*
X169131208Y-105715901D01*
X169245738Y-105601172D01*
X169252794Y-105592238D01*
X169310712Y-105551177D01*
X169381635Y-105547947D01*
X169443046Y-105583574D01*
X169449846Y-105591407D01*
X169453522Y-105597348D01*
X169578697Y-105722305D01*
X169584927Y-105726145D01*
X169584928Y-105726146D01*
X169722288Y-105810816D01*
X169729262Y-105815115D01*
X169793616Y-105836460D01*
X169890611Y-105868632D01*
X169890613Y-105868632D01*
X169897139Y-105870797D01*
X169903975Y-105871497D01*
X169903978Y-105871498D01*
X169947031Y-105875909D01*
X170001600Y-105881500D01*
X170602400Y-105881500D01*
X170605646Y-105881163D01*
X170605650Y-105881163D01*
X170701308Y-105871238D01*
X170701312Y-105871237D01*
X170708166Y-105870526D01*
X170714702Y-105868345D01*
X170714704Y-105868345D01*
X170846806Y-105824272D01*
X170875946Y-105814550D01*
X171026348Y-105721478D01*
X171151305Y-105596303D01*
X171172705Y-105561586D01*
X171240275Y-105451968D01*
X171240276Y-105451966D01*
X171244115Y-105445738D01*
X171269215Y-105370064D01*
X171309646Y-105311704D01*
X171375210Y-105284467D01*
X171445091Y-105297000D01*
X171477904Y-105320636D01*
X171878273Y-105721006D01*
X172274755Y-106117488D01*
X172282325Y-106125807D01*
X172286447Y-106132303D01*
X172292225Y-106137729D01*
X172292226Y-106137730D01*
X172336265Y-106179085D01*
X172339107Y-106181840D01*
X172358906Y-106201639D01*
X172362031Y-106204063D01*
X172362040Y-106204071D01*
X172362126Y-106204137D01*
X172371151Y-106211845D01*
X172403494Y-106242217D01*
X172410438Y-106246035D01*
X172410440Y-106246036D01*
X172421329Y-106252022D01*
X172437847Y-106262873D01*
X172453933Y-106275350D01*
X172494666Y-106292976D01*
X172505314Y-106298193D01*
X172544197Y-106319569D01*
X172551872Y-106321540D01*
X172551878Y-106321542D01*
X172563911Y-106324631D01*
X172582613Y-106331034D01*
X172601292Y-106339117D01*
X172635128Y-106344476D01*
X172645127Y-106346060D01*
X172656740Y-106348465D01*
X172699718Y-106359500D01*
X172720065Y-106359500D01*
X172739777Y-106361051D01*
X172759879Y-106364235D01*
X172767771Y-106363489D01*
X172804056Y-106360059D01*
X172815914Y-106359500D01*
X174132144Y-106359500D01*
X174200265Y-106379502D01*
X174246758Y-106433158D01*
X174257407Y-106499107D01*
X174254500Y-106525866D01*
X174254500Y-106922134D01*
X174258909Y-106962720D01*
X174258909Y-106989933D01*
X174255369Y-107022517D01*
X174255000Y-107029328D01*
X174255000Y-107055885D01*
X174259475Y-107071124D01*
X174285170Y-107093389D01*
X174284712Y-107093918D01*
X174297100Y-107100682D01*
X174312208Y-107120840D01*
X174312386Y-107120706D01*
X174333168Y-107148436D01*
X174358015Y-107214943D01*
X174342961Y-107284325D01*
X174333168Y-107299564D01*
X174319897Y-107317272D01*
X174312386Y-107327294D01*
X174312097Y-107327078D01*
X174265935Y-107373139D01*
X174260582Y-107375353D01*
X174256672Y-107379865D01*
X174255001Y-107387548D01*
X174255001Y-107418670D01*
X174255370Y-107425488D01*
X174258909Y-107458067D01*
X174258909Y-107485280D01*
X174254500Y-107525866D01*
X174254500Y-107922134D01*
X174254869Y-107925529D01*
X174254869Y-107925533D01*
X174258656Y-107960393D01*
X174258656Y-107987606D01*
X174254500Y-108025866D01*
X174254500Y-108422134D01*
X174254869Y-108425529D01*
X174254869Y-108425533D01*
X174258656Y-108460393D01*
X174258656Y-108487606D01*
X174254500Y-108525866D01*
X174254500Y-108922134D01*
X174254869Y-108925529D01*
X174254869Y-108925533D01*
X174258656Y-108960393D01*
X174258656Y-108987606D01*
X174254500Y-109025866D01*
X174254500Y-109422134D01*
X174254869Y-109425529D01*
X174254869Y-109425533D01*
X174258656Y-109460393D01*
X174258656Y-109487606D01*
X174254500Y-109525866D01*
X174254500Y-109922134D01*
X174258448Y-109958474D01*
X174258656Y-109960393D01*
X174258656Y-109987606D01*
X174254500Y-110025866D01*
X174254500Y-110422134D01*
X174253363Y-110422134D01*
X174238157Y-110486675D01*
X174187101Y-110536008D01*
X174128623Y-110550400D01*
X168869889Y-110550400D01*
X168801768Y-110530398D01*
X168755275Y-110476742D01*
X168744579Y-110437570D01*
X168743511Y-110427402D01*
X168731382Y-110312009D01*
X168722266Y-110283951D01*
X168678119Y-110148082D01*
X168676077Y-110141797D01*
X168586591Y-109986803D01*
X168579247Y-109978646D01*
X168471258Y-109858712D01*
X168471257Y-109858711D01*
X168466836Y-109853801D01*
X168382170Y-109792287D01*
X168327387Y-109752485D01*
X168327386Y-109752484D01*
X168322045Y-109748604D01*
X168316017Y-109745920D01*
X168316015Y-109745919D01*
X168164577Y-109678495D01*
X168164576Y-109678495D01*
X168158546Y-109675810D01*
X167983486Y-109638600D01*
X167980347Y-109638600D01*
X167915878Y-109612079D01*
X167905607Y-109602874D01*
X167512013Y-109209280D01*
X167477987Y-109146968D01*
X167475845Y-109106579D01*
X167478131Y-109085536D01*
X167478132Y-109085526D01*
X167478500Y-109082134D01*
X167478500Y-108085866D01*
X167471745Y-108023684D01*
X167420615Y-107887295D01*
X167333261Y-107770739D01*
X167216705Y-107683385D01*
X167080316Y-107632255D01*
X167018134Y-107625500D01*
X165721866Y-107625500D01*
X165659684Y-107632255D01*
X165523295Y-107683385D01*
X165406739Y-107770739D01*
X165319385Y-107887295D01*
X165268255Y-108023684D01*
X165261500Y-108085866D01*
X165261500Y-109082134D01*
X165268255Y-109144316D01*
X165319385Y-109280705D01*
X165406739Y-109397261D01*
X165523295Y-109484615D01*
X165659684Y-109535745D01*
X165721866Y-109542500D01*
X165995578Y-109542500D01*
X166063699Y-109562502D01*
X166084673Y-109579405D01*
X166711673Y-110206405D01*
X166745699Y-110268717D01*
X166740634Y-110339532D01*
X166698087Y-110396368D01*
X166631567Y-110421179D01*
X166622578Y-110421500D01*
X165721866Y-110421500D01*
X165659684Y-110428255D01*
X165523295Y-110479385D01*
X165406739Y-110566739D01*
X165319385Y-110683295D01*
X165319101Y-110683082D01*
X165272920Y-110729157D01*
X165212662Y-110744500D01*
X164987338Y-110744500D01*
X164919217Y-110724498D01*
X164880731Y-110683208D01*
X164880615Y-110683295D01*
X164879810Y-110682220D01*
X164879807Y-110682216D01*
X164793261Y-110566739D01*
X164676705Y-110479385D01*
X164540316Y-110428255D01*
X164478134Y-110421500D01*
X164326423Y-110421500D01*
X164258302Y-110401498D01*
X164237328Y-110384595D01*
X160782405Y-106929672D01*
X160748379Y-106867360D01*
X160745500Y-106840577D01*
X160745500Y-106257600D01*
X160744922Y-106252022D01*
X160737916Y-106184503D01*
X160750781Y-106114682D01*
X160799352Y-106062900D01*
X160863243Y-106045500D01*
X165304919Y-106045500D01*
X165373040Y-106065502D01*
X165393863Y-106084876D01*
X165395008Y-106083731D01*
X165401357Y-106090080D01*
X165406739Y-106097261D01*
X165523295Y-106184615D01*
X165659684Y-106235745D01*
X165721866Y-106242500D01*
X167018134Y-106242500D01*
X167080316Y-106235745D01*
X167216705Y-106184615D01*
X167333261Y-106097261D01*
X167420615Y-105980705D01*
X167471745Y-105844316D01*
X167475877Y-105806280D01*
X167503119Y-105740718D01*
X167561482Y-105700292D01*
X167632436Y-105697837D01*
X167679232Y-105721006D01*
X167685240Y-105725751D01*
X167823243Y-105810816D01*
X167836424Y-105816963D01*
X167990710Y-105868138D01*
X168004086Y-105871005D01*
X168098438Y-105880672D01*
X168104854Y-105881000D01*
X168129885Y-105881000D01*
X168145124Y-105876525D01*
X168146329Y-105875135D01*
X168148000Y-105867452D01*
X168148000Y-103433118D01*
X168143857Y-103419008D01*
X168141632Y-103356727D01*
X168148000Y-103327453D01*
X168148000Y-102380115D01*
X168143525Y-102364876D01*
X168142135Y-102363671D01*
X168134452Y-102362000D01*
X167412116Y-102362000D01*
X167396877Y-102366475D01*
X167395672Y-102367865D01*
X167394001Y-102375548D01*
X167394001Y-102630095D01*
X167394338Y-102636614D01*
X167404257Y-102732206D01*
X167407149Y-102745600D01*
X167458588Y-102899784D01*
X167464761Y-102912962D01*
X167550063Y-103050807D01*
X167559099Y-103062208D01*
X167673829Y-103176739D01*
X167685240Y-103185751D01*
X167822983Y-103270657D01*
X167870476Y-103323429D01*
X167881900Y-103393501D01*
X167853626Y-103458625D01*
X167823170Y-103485061D01*
X167684193Y-103571063D01*
X167672792Y-103580099D01*
X167558261Y-103694829D01*
X167549249Y-103706240D01*
X167464184Y-103844243D01*
X167458037Y-103857424D01*
X167406862Y-104011710D01*
X167403995Y-104025086D01*
X167394328Y-104119438D01*
X167394000Y-104125855D01*
X167394000Y-104269271D01*
X167373998Y-104337392D01*
X167320342Y-104383885D01*
X167250068Y-104393989D01*
X167216879Y-104382921D01*
X167216705Y-104383385D01*
X167080316Y-104332255D01*
X167018134Y-104325500D01*
X165721866Y-104325500D01*
X165659684Y-104332255D01*
X165523295Y-104383385D01*
X165406739Y-104470739D01*
X165319385Y-104587295D01*
X165316233Y-104595703D01*
X165279859Y-104692730D01*
X165237217Y-104749494D01*
X165170656Y-104774194D01*
X165161877Y-104774500D01*
X163636422Y-104774500D01*
X163568301Y-104754498D01*
X163521808Y-104700842D01*
X163511704Y-104630568D01*
X163541198Y-104565988D01*
X163547327Y-104559405D01*
X166596327Y-101510405D01*
X166658639Y-101476379D01*
X166685422Y-101473500D01*
X167268000Y-101473500D01*
X167336121Y-101493502D01*
G37*
G04 #@! TD.AperFunction*
M02*
